Categories:Time
License:GPL-3.0-only
Author Name:bitfire web engineering
Web Site:https://icsx5.bitfire.at/
Source Code:https://icsx5.bitfire.at/source/
Issue Tracker:https://icsx5.bitfire.at/forums/
Changelog:https://forums.bitfire.at/category/5/icsx?tag=announcement
Donate:https://icsx5.bitfire.at/donate/
Bitcoin:1KSCy7RHztKuhW9fLLaUYqdwdC2iwbejZU

Auto Name:ICSx⁵

Repo Type:git
Repo:https://gitlab.com/bitfireAT/icsx5.git

Build:0.9,1
    commit=v0.9
    subdir=app
    submodules=yes
    gradle=yes

Build:0.9.9,2
    commit=v0.9.9
    subdir=app
    submodules=yes
    gradle=yes

Build:1.0,3
    commit=v1.0
    subdir=app
    submodules=yes
    gradle=yes

Build:1.0.1,4
    commit=v1.0.1
    subdir=app
    submodules=yes
    gradle=yes

Build:1.1,5
    commit=v1.1
    subdir=app
    submodules=yes
    gradle=yes

Build:1.2,7
    commit=v1.2
    subdir=app
    submodules=yes
    gradle=yes

Build:1.2.1,8
    commit=v1.2.1
    subdir=app
    submodules=yes
    gradle=yes

Build:1.3,9
    commit=v1.3
    subdir=app
    submodules=yes
    gradle=yes

Build:1.4,10
    commit=v1.4
    subdir=app
    submodules=yes
    gradle=yes

Build:1.4.2,12
    commit=v1.4.2
    subdir=app
    submodules=yes
    gradle=yes

Build:1.4.3,13
    commit=v1.4.3
    subdir=app
    submodules=yes
    gradle=yes

Build:1.5.2,16
    commit=v1.5.2
    subdir=app
    submodules=yes
    gradle=yes

Build:1.5.4,18
    commit=v1.5.4
    subdir=app
    submodules=yes
    gradle=yes

Build:1.5.5,19
    commit=v1.5.5
    subdir=app
    submodules=yes
    gradle=yes

Build:1.5.6,21
    commit=v1.5.6
    subdir=app
    submodules=yes
    gradle=yes

Build:1.5.7,22
    commit=v1.5.7
    subdir=app
    submodules=yes
    gradle=yes

Build:1.6,24
    commit=v1.6
    subdir=app
    submodules=yes
    gradle=yes

Build:1.6.1,26
    commit=v1.6.1
    subdir=app
    submodules=yes
    gradle=standard

Build:1.7,27
    commit=v1.7
    subdir=app
    submodules=yes
    gradle=standard

Build:1.8,32
    commit=v1.8
    subdir=app
    submodules=yes
    gradle=standard

Auto Update Mode:Version v%v
Update Check Mode:Tags
Current Version:1.8
Current Version Code:32
